{"properties": [
  {
    "name": "api.usuario.porta",
    "type": "java.lang.String",
    "description": "A description for 'api.usuario.porta'"
  },
  {
    "name": "api.usuario.servidor",
    "type": "java.lang.String",
    "description": "A description for 'api.usuario.servidor'"
  },
  {
    "name": "api.usuario.servico",
    "type": "java.lang.String",
    "description": "A description for 'api.usuario.servico'"
  }
]}